{
    "timelimit":1000,
        "memlimit":65536,
        "compile":"g++",
        "score":"rate",
        "check":"diff",
        "test":[
        {
            "data":[1],
            "weight":10
        },
        {
            "data":[2],
            "weight":10
        },
        {
            "data":[3],
            "weight":10
        },
        {
            "data":[4],
            "weight":10
        },
        {
            "data":[5],
            "weight":10
        },
        {
            "data":[6],
            "weight":10
        },
        {
            "data":[7],
            "weight":10
        },
        {
            "data":[8],
            "weight":10
        },
        {
            "data":[9],
            "weight":10
        },
        {
            "data":[10],
            "weight":10
        }
    ]
}

