{
    "timelimit":1000,
        "memlimit":65536,
        "compile":"g++",
        "score":"rate",
        "check":"diff",
        "test":[
        {
            "data":[1,2,3],
            "weight":40
        },
        {
            "data":[4,5],
            "weight":60
        }
    ]
}

